LV: Analysing Quality of Care data - resources - 1 Duplicates
…
1.1.2 Fully distinct entries

dplyr::distinct() tests for full distinct entries (same row twice)

basically the opposite of base::duplicated()

1.1.3 Identify duplicates by counting the key (or key-index-pair)

# counting the number of rows per patient_ids
# using sort = T moves the highest number on top
count(dataset, patient_ids, sort = T)

# A tibble: 96 × 2
   patient_ids     n
         <dbl> <int>
 1       10119     2
 2       12335     2
 3       16839     2
 4       18098     2
 5       10236     1
 6       10319     1
 7       10522     1
 8       10647     1
 9       10758     1
10       10875     1
# … with 86 more rows
…
